codes/out.vcd
$date
	Tue Nov  1 00:05:37 2022
$end
$version
	Icarus Verilog
$end
$timescale
	1s
$end
$scope module TestBench $end
$var reg 1 ! Clk $end
$var reg 1 " Reset $end
$var reg 1 # Start $end
$var integer 32 $ counter [31:0] $end
$var integer 32 % i [31:0] $end
$var integer 32 & outfile [31:0] $end
$scope module CPU $end
$var wire 32 ' PCstep [31:0] $end
$var wire 1 ! clk_i $end
$var wire 1 " rst_i $end
$var wire 1 # start_i $end
$var wire 5 ( rs2_addr [4:0] $end
$var wire 5 ) rs1_addr [4:0] $end
$var wire 5 * rd_addr [4:0] $end
$var wire 32 + nextPC [31:0] $end
$var wire 32 , mux0 [31:0] $end
$var wire 32 - inst [31:0] $end
$var wire 12 . immediate [11:0] $end
$var wire 10 / func73 [9:0] $end
$var wire 32 0 currentPC [31:0] $end
$var wire 1 1 RegWrite $end
$var wire 32 2 RS2 [31:0] $end
$var wire 32 3 RS1 [31:0] $end
$var wire 32 4 B [31:0] $end
$var wire 32 5 ALUout [31:0] $end
$var wire 1 6 ALUSrc $end
$var wire 2 7 ALUOp [1:0] $end
$var wire 3 8 ALUCtrl [2:0] $end
$scope module ALU $end
$var wire 32 9 data2_i [31:0] $end
$var wire 32 : data1_i [31:0] $end
$var wire 3 ; ALUCtrl_i [2:0] $end
$var reg 1 < Zero_o $end
$var reg 32 = data_o [31:0] $end
$upscope $end
$scope module ALU_Control $end
$var wire 10 > funct_i [9:0] $end
$var wire 6 ? sig [5:0] $end
$var wire 2 @ ALUOp_i [1:0] $end
$var reg 3 A ALUCtrl_o [2:0] $end
$upscope $end
$scope module Add_PC $end
$var wire 32 B data2_in [31:0] $end
$var wire 32 C data1_in [31:0] $end
$var reg 32 D data_o [31:0] $end
$upscope $end
$scope module Control $end
$var wire 7 E Op_i [6:0] $end
$var reg 2 F ALUOp_o [1:0] $end
$var reg 1 6 ALUSrc_o $end
$var reg 1 1 RegWrite_o $end
$upscope $end
$scope module Instruction_Memory $end
$var wire 32 G instr_o [31:0] $end
$var wire 32 H addr_i [31:0] $end
$upscope $end
$scope module MUX_ALUSrc $end
$var wire 1 6 select_i $end
$var wire 32 I data2_i [31:0] $end
$var wire 32 J data1_i [31:0] $end
$var reg 32 K data_o [31:0] $end
$upscope $end
$scope module PC $end
$var wire 1 ! clk_i $end
$var wire 32 L pc_i [31:0] $end
$var wire 1 " rst_i $end
$var wire 1 # start_i $end
$var reg 32 M pc_o [31:0] $end
$upscope $end
$scope module Registers $end
$var wire 5 N RDaddr_i [4:0] $end
$var wire 32 O RDdata_i [31:0] $end
$var wire 5 P RS1addr_i [4:0] $end
$var wire 32 Q RS1data_o [31:0] $end
$var wire 5 R RS2addr_i [4:0] $end
$var wire 32 S RS2data_o [31:0] $end
$var wire 1 1 RegWrite_i $end
$var wire 1 ! clk_i $end
$upscope $end
$scope module Sign_Extend $end
$var wire 12 T data_i [11:0] $end
$var reg 32 U data_o [31:0] $end
$upscope $end
$upscope $end
$upscope $end
$enddefinitions $end
#0
$dumpvars
b1010 U
b1010 T
b0 S
b1010 R
b0 Q
b0 P
b1010 O
b101 N
b0 M
b100 L
b1010 K
b0 J
b1010 I
b0 H
b101000000000001010010011 G
b0 F
b10011 E
b100 D
b0 C
b100 B
b10 A
b0 @
b0 ?
b0 >
b1010 =
0<
b10 ;
b0 :
b1010 9
b10 8
b0 7
16
b1010 5
b1010 4
b0 3
b0 2
11
b0 0
b0 /
b1010 .
b101000000000001010010011 -
b1010 ,
b100 +
b101 *
b0 )
b1010 (
b100 '
b11 &
b100000 %
b0 $
0#
0"
0!
$end
#12
1#
1"
#25
b1101 5
b1101 =
b1101 O
b1101 4
b1101 9
b1101 K
b1101 ,
b1101 I
b1101 U
b110 *
b110 N
b1101 (
b1101 R
b1101 .
b1101 T
b110100000000001100010011 -
b110100000000001100010011 G
b1000 +
b1000 D
b1000 L
b100 0
b100 C
b100 H
b100 M
b1 $
1!
#50
0!
#75
b11 8
b11 ;
b11 A
06
b1 7
b1 @
b1 F
b100110 ,
b100110 I
b100110 U
b10001 ?
b10000010 5
b10000010 =
b10000010 O
b110011 E
b1000 /
b1000 >
b111 *
b111 N
b1101 2
b1101 J
b1101 S
b110 (
b110 R
b1010 3
b1010 :
b1010 Q
b101 )
b101 P
b100110 .
b100110 T
b10011000101000001110110011 -
b10011000101000001110110011 G
b1100 +
b1100 D
b1100 L
b1000 0
b1000 C
b1000 H
b1000 M
b10 $
1!
#100
0!
#125
b10101001 5
b10101001 =
b10101001 O
b11100 *
b11100 N
b1101 3
b1101 :
b1101 Q
b110 )
b110 P
b10011000110000111000110011 -
b10011000110000111000110011 G
b10000 +
b10000 D
b10000 L
b1100 0
b1100 C
b1100 H
b1100 M
b11 $
1!
#150
0!
#175
16
b0 7
b0 @
b0 F
b11111111111111111111111111111111 4
b11111111111111111111111111111111 9
b11111111111111111111111111111111 K
b11111111111111111111111111111111 ,
b11111111111111111111111111111111 I
b11111111111111111111111111111111 U
b1100 5
b1100 =
b1100 O
b10 8
b10 ;
b10 A
b110000 ?
b10011 E
b1111111000 /
b1111111000 >
b110 *
b110 N
b0 2
b0 J
b0 S
b11111 (
b11111 R
b111111111111 .
b111111111111 T
b11111111111100110000001100010011 -
b11111111111100110000001100010011 G
b10100 +
b10100 D
b10100 L
b10000 0
b10000 C
b10000 H
b10000 M
b100 $
1!
#200
0!
#225
b11111 4
b11111 9
b11111 K
b11111 ,
b11111 I
b11111 U
b0 ?
b0 /
b0 >
b11110 *
b11110 N
b0 )
b0 P
b11111 .
b11111 T
b1111100000000111100010011 -
b1111100000000111100010011 G
b11000 +
b11000 D
b11000 L
b11111 5
b11111 =
b11111 O
b10100 0
b10100 C
b10100 H
b10100 M
b0 3
b0 :
b0 Q
b101 $
1!
#250
0!
#275
1<
b10000010 4
b10000010 9
b10000010 K
b0 8
b0 ;
b0 A
06
b1 7
b1 @
b1 F
b111 ,
b111 I
b111 U
b1111 ?
b0 5
b0 =
b0 O
b110011 E
b111 /
b111 >
b11100 *
b11100 N
b10000010 2
b10000010 J
b10000010 S
b111 (
b111 R
b1100 3
b1100 :
b1100 Q
b110 )
b110 P
b111 .
b111 T
b11100110111111000110011 -
b11100110111111000110011 G
b11100 +
b11100 D
b11100 L
b11000 0
b11000 C
b11000 H
b11000 M
b110 $
1!
#300
0!
#325
0<
b10000010 5
b10000010 =
b10000010 O
b110 8
b110 ;
b110 A
b1001 ?
b100 /
b100 >
b11101 *
b11101 N
b0 3
b0 :
b0 Q
b11100 )
b11100 P
b11111100100111010110011 -
b11111100100111010110011 G
b100000 +
b100000 D
b100000 L
b11100 0
b11100 C
b11100 H
b11100 M
b111 $
1!
#350
0!
#375
1<
b0 5
b0 =
b0 O
b0 4
b0 9
b0 K
b1101 ,
b1101 I
b1101 U
b1110 *
b1110 N
b0 2
b0 J
b0 S
b1101 (
b1101 R
b1010 )
b1010 P
b1101 .
b1101 T
b110101010100011100110011 -
b110101010100011100110011 G
b100100 +
b100100 D
b100100 L
b100000 0
b100000 C
b100000 H
b100000 M
b1000 $
1!
#400
0!
#425
0<
b11111111111111111111111101111110 5
b11111111111111111111111101111110 =
b11111111111111111111111101111110 O
b10000010 4
b10000010 9
b10000010 K
b10000000111 ,
b10000000111 I
b10000000111 U
b111 8
b111 ;
b111 A
b100001 ?
b100000000 /
b100000000 >
b101 *
b101 N
b10000010 2
b10000010 J
b10000010 S
b111 (
b111 R
b11100 )
b11100 P
b10000000111 .
b10000000111 T
b1000000011111100000001010110011 -
b1000000011111100000001010110011 G
b101000 +
b101000 D
b101000 L
b100100 0
b100100 C
b100100 H
b100100 M
b1001 $
1!
#450
0!
#475
0<
16
b0 7
b0 @
b0 F
b11111111111111111111111111111000 4
b11111111111111111111111111111000 9
b11111111111111111111111111111000 K
b11111111111111111111111111111000 ,
b11111111111111111111111111111000 I
b11111111111111111111111111111000 U
b11111111111111111111111111111000 5
b11111111111111111111111111111000 =
b11111111111111111111111111111000 O
b10 8
b10 ;
b10 A
b110000 ?
b10011 E
b1111111000 /
b1111111000 >
b11111 *
b11111 N
b0 2
b0 J
b0 S
b11000 (
b11000 R
b11111 )
b11111 P
b111111111000 .
b111111111000 T
b11111111100011111000111110010011 -
b11111111100011111000111110010011 G
b101100 +
b101100 D
b101100 L
b101000 0
b101000 C
b101000 H
b101000 M
b1010 $
1!
#500
0!
#525
b110000 +
b110000 D
b110000 L
b11111111111111111111111111110000 5
b11111111111111111111111111110000 =
b11111111111111111111111111110000 O
b101100 0
b101100 C
b101100 H
b101100 M
b11111111111111111111111111111000 3
b11111111111111111111111111111000 :
b11111111111111111111111111111000 Q
b1011 $
1!
#550
0!
#575
b110100 +
b110100 D
b110100 L
b11111111111111111111111111101000 5
b11111111111111111111111111101000 =
b11111111111111111111111111101000 O
b110000 0
b110000 C
b110000 H
b110000 M
b11111111111111111111111111110000 3
b11111111111111111111111111110000 :
b11111111111111111111111111110000 Q
b1100 $
1!
#600
0!
#625
b111111 4
b111111 9
b111111 K
b111111 ,
b111111 I
b111111 U
b10000 ?
b1000 /
b1000 >
b111 *
b111 N
b11111111111111111111111111101000 2
b11111111111111111111111111101000 J
b11111111111111111111111111101000 S
b11111 (
b11111 R
b0 )
b0 P
b111111 .
b111111 T
b11111100000000001110010011 -
b11111100000000001110010011 G
b111000 +
b111000 D
b111000 L
b111111 5
b111111 =
b111111 O
b110100 0
b110100 C
b110100 H
b110100 M
b0 3
b0 :
b0 Q
b1101 $
1!
#650
0!
#675
b10000000010 4
b10000000010 9
b10000000010 K
b10000000010 ,
b10000000010 I
b10000000010 U
0<
b100 8
b100 ;
b100 A
b101010 ?
b1111 5
b1111 =
b1111 O
b100000101 /
b100000101 >
b0 2
b0 J
b0 S
b10 (
b10 R
b111111 3
b111111 :
b111111 Q
b111 )
b111 P
b10000000010 .
b10000000010 T
b1000000001000111101001110010011 -
b1000000001000111101001110010011 G
b111100 +
b111100 D
b111100 L
b111000 0
b111000 C
b111000 H
b111000 M
b1110 $
1!
#700
0!
#725
b1000000 +
b1000000 D
b1000000 L
b11 5
b11 =
b11 O
b111100 0
b111100 C
b111100 H
b111100 M
b1111 3
b1111 :
b1111 Q
b1111 $
1!
#750
0!
#775
b1000100 +
b1000100 D
b1000100 L
1<
b0 5
b0 =
b0 O
b1000000 0
b1000000 C
b1000000 H
b1000000 M
b11 3
b11 :
b11 Q
b10000 $
1!
#800
0!
#825
b10000000001 4
b10000000001 9
b10000000001 K
b10000000001 ,
b10000000001 I
b10000000001 U
0<
b110 5
b110 =
b110 O
b110 *
b110 N
b1 (
b1 R
b110 )
b110 P
b10000000001 .
b10000000001 T
b1000000000100110101001100010011 -
b1000000000100110101001100010011 G
b1001000 +
b1001000 D
b1001000 L
b1000100 0
b1000100 C
b1000100 H
b1000100 M
b1100 3
b1100 :
b1100 Q
b10001 $
1!
#850
0!
#875
b1001100 +
b1001100 D
b1001100 L
b11 5
b11 =
b11 O
b1001000 0
b1001000 C
b1001000 H
b1001000 M
b110 3
b110 :
b110 Q
b10010 $
1!
#900
0!
#925
b1010000 +
b1010000 D
b1010000 L
b1 5
b1 =
b1 O
b1001100 0
b1001100 C
b1001100 H
b1001100 M
b11 3
b11 :
b11 Q
b10011 $
1!
#950
0!
#975
b1 4
b1 9
b1 K
06
b1 7
b1 @
b1 F
b110 ,
b110 I
b110 U
b101 8
b101 ;
b101 A
b11 ?
b110011 E
b1 /
b1 >
b11111 *
b11111 N
b1 2
b1 J
b1 S
b110 (
b110 R
b11111 )
b11111 P
b110 .
b110 T
b11011111001111110110011 -
b11011111001111110110011 G
b1010100 +
b1010100 D
b1010100 L
0<
b11111111111111111111111111010000 5
b11111111111111111111111111010000 =
b11111111111111111111111111010000 O
b1010000 0
b1010000 C
b1010000 H
b1010000 M
b11111111111111111111111111101000 3
b11111111111111111111111111101000 :
b11111111111111111111111111101000 Q
b10100 $
1!
#1000
0!
#1025
b1011000 +
b1011000 D
b1011000 L
b11111111111111111111111110100000 5
b11111111111111111111111110100000 =
b11111111111111111111111110100000 O
b1010100 0
b1010100 C
b1010100 H
b1010100 M
b11111111111111111111111111010000 3
b11111111111111111111111111010000 :
b11111111111111111111111111010000 Q
b10101 $
1!
#1050
0!
#1075
16
b0 7
b0 @
b0 F
b0 4
b0 9
b0 K
b0 ,
b0 I
b0 U
b10 8
b10 ;
b10 A
b0 ?
1<
b0 E
b0 /
b0 >
b0 *
b0 N
b0 2
b0 J
b0 S
b0 (
b0 R
b0 )
b0 P
b0 .
b0 T
b0 -
b0 G
b1011100 +
b1011100 D
b1011100 L
b0 5
b0 =
b0 O
b1011000 0
b1011000 C
b1011000 H
b1011000 M
b0 3
b0 :
b0 Q
b10110 $
1!
#1100
0!
#1125
b1100000 +
b1100000 D
b1100000 L
b1011100 0
b1011100 C
b1011100 H
b1011100 M
b10111 $
1!
#1150
0!
#1175
b1100100 +
b1100100 D
b1100100 L
b1100000 0
b1100000 C
b1100000 H
b1100000 M
b11000 $
1!
#1200
0!
#1225
b1101000 +
b1101000 D
b1101000 L
b1100100 0
b1100100 C
b1100100 H
b1100100 M
b11001 $
1!
#1250
0!
#1275
b1101100 +
b1101100 D
b1101100 L
b1101000 0
b1101000 C
b1101000 H
b1101000 M
b11010 $
1!
#1300
0!
#1325
b1110000 +
b1110000 D
b1110000 L
b1101100 0
b1101100 C
b1101100 H
b1101100 M
b11011 $
1!
#1350
0!
#1375
b1110100 +
b1110100 D
b1110100 L
b1110000 0
b1110000 C
b1110000 H
b1110000 M
b11100 $
1!
#1400
0!
#1425
b1111000 +
b1111000 D
b1111000 L
b1110100 0
b1110100 C
b1110100 H
b1110100 M
b11101 $
1!
#1450
0!
#1475
b1111100 +
b1111100 D
b1111100 L
b1111000 0
b1111000 C
b1111000 H
b1111000 M
b11110 $
1!
#1500
0!
#1525
b10000000 +
b10000000 D
b10000000 L
b1111100 0
b1111100 C
b1111100 H
b1111100 M
1!
